[
  {
    "name": "Notifications Module Improvements",
    "aliases": ["notify", "notifications", "alerts", "$notify", "$notify improvements"],
    "desc": "Improve the current mission alerts system and possibly add the shops to be automated, add embed support and other formatting options for the mods using `$notify` (which is the command used to send the news messages)",
    "goals": {
      "2": "Add timestamps to all the notification embeds sent by Chkoupinabot so that you can know when that exact embed has been sent.",
      "5": "Add \"notified by @someone\" and support for images using their link",
      "10": "Add multiple role mentions parsing support and multi channel sending",
      "30": "Add an embed formatting system that would allow showing all news inside an embed",
      "50": "Make a scrapper that scans StormShieldOne's website for missing V-Bucks missions and showing potentially interesting missions"
    },
    "goals_reached": 0,
    "tips": 0,
    "votes": 0,
    "in_progress": false
  },
  {
    "name": "Moderation module",
    "aliases": ["moderation"],
    "desc": "Tools for moderators like the ban/mute/warn, an auto word filter on the bot, adding previous offenses/actions taken (for mods) tracking to the profile system",
    "goals": {
      "10": "Implement a word filter function that stores a list of forbidden words or formation of words (like discord links) and sends a warning message in the channel (that will add a warning to the profile once the last goal is achieved too (to allow pardoning false positives))",
      "15": "Implement a `$report` command that reports bad behaviour, with an urgent option for Helpers",
      "20": "Implement the backbone of the system and add the `$warn`, `$ban` and `$kick` commands",
      "30": "Implement `$ban` or `$kick` by message query and mass `$kick` and `$ban` support",
      "50": "Implement timed mutes and bans, a pardon system, showing the offenses of users in their profiles (for mods or self reference only, sent in a dm)"
    },
    "goals_reached": 0,
    "tips": 0,
    "votes": 0,
    "in_progress": false
  },
  {
    "name": "Karma Rework",
    "aliases": ["karma", "rep", "reputation", "rep rework", "reputation rework"],
    "desc": "Rework the reputation system to add leaderboards, track the daily, weekly and seasonal (plus the current total) karma, possibly tweak the number of karma that can be given daily",
    "goals": {
      "5": "Support showing the current leaderboards (for total rep) per category",
      "20": "Review the amount of karma that can be given and start working on the new backend",
      "50": "Completely change the current profiles system to allow daily, weekly, seasonal and total karma tracking, add daily, weekly and seasonal leaderboards with bounties to the highest people on each category"
    },
    "goals_reached": 0,
    "tips": 0,
    "votes": 0,
    "in_progress": false
  },
  {
    "name": "Clans and Guilds",
    "aliases": ["clans", "guilds"],
    "desc": "A clans and/or guilds system for the server that allows adding a secret channel category for each clan where the owner can put text channels and voice channels that can be bought with c-bucks",
    "goals": {
      "20": "make the backbone, allow owners to buy a new clan, set description and invite people",
      "50": "implement buying a category and text/voice channels for it"
    },
    "goals_reached": 0,
    "tips": 0,
    "votes": 0,
    "in_progress": false
  },
  {
    "name": "Profiles Improvements",
    "aliases": ["profile", "profiles", "setprofile"],
    "desc": "Add various improvements to the profiles system, checks on every field to avoid breaking them, automatic calculations (for things like k/d etc) and an automatic username update system",
    "goals": {
      "5": "Add basic checks to avoid having users break the max limit on the fields of the embed",
      "10": "Change some fields to numeric values and add checks to make some other fields automatically calculated",
      "20": "Improve the formatting of some fields",
      "30": "Add checks to every single field that would minimize misuse",
      "50": "Add a formatting language that allows a user to purchase (with C-Bucks) the option to write a username format and have the bot automatically change their username from that format (example: `{epic_name}[⚡{pl}🏆{wins}]` would become `Chkoupinator[⚡130🏆9000+]` and if I do `$set pl 131` my name would become `Chkoupinator[⚡131🏆9000+] automatically)"
    },
    "goals_reached": 0,
    "tips": 0,
    "votes": 0,
    "in_progress": false
  },
  {
    "name": "Social Module Improvements",
    "aliases": ["daily", "social", "social module", "social cog"],
    "desc": "Improve the Social Module that handles levels up and the `$daily` command.",
    "goals": {
      "5": "Change `monthly` to `seasonal` wherever it is possible to",
      "10": "Fix all the bugs on the $daily command and make it more explicitly explained",
      "20": "Add a command to show the user's daily, weekly and seasonal activity as well as the activity on previous seasons",
      "30": "Implement a seasonal currency system where the currency you gain would rather be seasonal and moved to the total currency you have at the end of the season, as well as adding seasonal items to the shop and the ability to use seasonal currency to buy things bought with total currency (if for instance you don't have enough total currency)",
      "40": "Make a profiles converter to change `monthly` to `seasonal` even on the user's profiles and remove all traces of the old monthly system",
      "50": "Implement leaderboards for people with the highest levels that can be sorted by seasonal or total"
    },
    "goals_reached": 0,
    "tips": 0,
    "votes": 0,
    "in_progress": false
  },
  {
    "name": "Achievements Implementation",
    "aliases": ["achievements", "achievements module", "achievements"],
    "desc": "Implement commands to show the achievements of every user, add more rewards to unlocking specific achievements and add checks to verify if some achievements have been unlocked or not using the already in place tracking system for this purpose",
    "goals": {
      "5": "Make a command that shows the achievements of a user (with a very raw output)",
      "20": "Rework the achievements handling system to allow better storage and allow users to order their favourite achievements to show them first with a new command",
      "30": "Add to the list of achievements that someone could unlock and add regular checks to verify if the user didn't go past the threshold to unlock an achievement (or a higher level of that achievement)",
      "50": "Add icons to the achievements and small versions of it so that a bunch of achievements can be showed in the profile, add a ladder for achievements that can show people with most achievements and also sub ladders for specific achievements showing the people who got the highest level of that achievement first"
    },
    "goals_reached": 0,
    "tips": 0,
    "votes": 0,
    "in_progress": false
  },
  {
    "name": "Quick Setup",
    "aliases": ["quickstart", "quick start", "quicksetup"],
    "desc": "Add a quickstart feature to the bot where the bot holds the hand of new users to help them get all the roles they want and setup the basic information of their profile",
    "goals": {
      "20": "Make a quickstart command that asks people whether they play StW or BR (or both), give them roles for what they play (and also offer to give them other roles based on what they play like the V-Bucks alerts) and prompt users to use it when they get the member role",
      "50": "Add a quick overview of the profiles system after getting the roles is done and prompt the users to set up their profiles based on what they play (like game name, profile, region, pl and/or wins etc)"
    },
    "goals_reached": 0,
    "tips": 0,
    "votes": 0,
    "in_progress": false
 }
]