{
  "Tier 1 Colours": {
    "hidden": false,
    "default_price": 1000,
    "default_required_lvl": 5,
    "default_type": "colour",
    "Bro(w)ny Red": { "id": 462180903020396544},
    "Depressing Teal": { "id": 462180901489606666},
    "Decayed Purple": { "id": 462180902165020673},
    "Refurbished Mini Husk Grey": { "id": 332221420010733568, "price": 1300, "required_lvl": 6},
    "Refurbished Husk Brown": { "id": 332221419054301184, "price": 1600, "required_lvl": 8},
    "Refurbished Husky Husk Browner": { "id": 334883925014872075, "price": 2000, "required_lvl": 10}
  },
  "Tier 2 Colours": {
    "hidden": false,
    "default_price": 2500,
    "default_required_lvl": 20,
    "default_type": "colour",
    "Kinda Pistachio": { "id": 462182472986132480},
    "Grey Light Blue": { "id": 462182471895744512},
    "A Bit Pink": { "id": 462182473309356037},
    "Refurbished Lobber Pink": { "id": 332221418420830209, "price": 3500, "required_lvl": 27},
    "Refurbished Smasher Light Purple": { "id": 332221417506471938, "price": 5000, "required_lvl": 35}
  },
  "Tier 3 Colours": {
    "hidden": false,
    "default_price": 10000,
    "default_required_lvl": 50,
    "default_type": "colour",
    "Piece of Parchment White": { "id": 476172745613508618},
    "Worm Flesh Pink": { "id": 476172745512714241},
    "Stop Axe Red": { "id": 476172737602387990},
    "Refurbished Pitcher Light Blue": { "id": 332221417443819520, "price": 15000, "required_lvl": 58},
    "Refurbished Sploder Dark Red-Orange": { "id": 332221420945932289, "price": 20000, "required_lvl": 66}
  },
    "Tier 4 Colours": {
    "hidden": false,
    "default_price": 50000,
    "default_required_lvl": 75,
    "default_type": "colour",
    "Amazing Spider Red": { "id": 548601999663562752},
    "Actually Pistachio": { "id": 548602047272976394},
    "Abyssal Purple": { "id": 548602101203468300},
    "Refurbished Troll Blue": { "id": 334027237793857556, "price": 65000, "required_lvl": 82},
    "Refurbished Beehive Light Orange": { "id": 334093657969786880, "price": 75000, "required_lvl": 88}

  },
  "Tier 5 Colours": {
    "hidden": false,
    "default_price": 100000,
    "default_required_lvl": 100,
    "default_type": "colour",
    "Refurbished Discounted Poisonous Lobber Green": { "id": 334093674130571271},
    "Refurbished Discounted Blaster Purple": { "id": 338525339003125761},
    "Refurbished Discounted Flinger Dark Purple": { "id": 338576405749170176}
  },
  "Legacy Showcase": {
    "hidden": true,
    "default_price": null,
    "default_required_lvl": null,
    "default_type": "colour",
    "Flinger Dark Purple": { "id": 338576405749170176},
    "Blaster Purple": { "id": 338525339003125761},
    "Poisonous Lobber Green": { "id": 334093674130571271},
    "Beehive Light Orange": { "id": 334093657969786880},
    "Troll Blue": { "id": 334027237793857556},
    "Sploder Dark Red-Orange": { "id": 332221420945932289},
    "Pitcher Light Blue": { "id": 332221417443819520},
    "Smasher Light Purple": { "id": 332221417506471938},
    "Lobber Pink": { "id": 332221418420830209},
    "Husky Husk Browner": { "id": 334883925014872075},
    "Husk Brown": { "id": 332221419054301184},
    "Mini Husk Grey": { "id": 332221420010733568}
  },
  "Monthly Colours (July-Sept 2018)": {
    "hidden": true,
    "default_price": null,
    "default_required_lvl": null,
    "default_type": "colour",
    "July 2018 Survivor": { "id": 464864006746931200},
    "July 2018 Challenger": { "id": 464864004876271647},
    "July 2018 Champion": { "id": 464863999146590216},
    "July 2018 Legend": { "id": 464864745883828244},
    "Jul-Sep 2018 Survivor": { "id": 464864006746931200},
    "Jul-Sep 2018 Spectator": { "id": 464864006746931200},
    "Jul-Sep 2018 Challenger": { "id": 464864004876271647},
    "Jul-Sep 2018 Champion": { "id": 464863999146590216},
    "Jul-Sep 2018 Legend": { "id": 464864745883828244}
  },
  "Monthly Colours (Oct-Dec 2018)": {
    "hidden": true,
    "default_price": null,
    "default_required_lvl": null,
    "default_type": "colour",
    "Oct-Dec 2018 Spectator": { "id": 496139290896498688},
    "Oct-Dec 2018 Challenger": { "id": 496139292742254593},
    "Oct-Dec 2018 Champion": { "id": 496139285456748554},
    "Oct-Dec 2018 Legend": { "id": 496139294558388234}
  },
  "Monthly Colours (Jan-Mar 2019)": {
    "hidden": true,
    "default_price": null,
    "default_required_lvl": null,
    "default_type": "colour",
    "Jan-Mar 2019 Spectator": { "id": 529439482173456395},
    "Jan-Mar 2019 Challenger": { "id": 529439481263292427},
    "Jan-Mar 2019 Champion": { "id": 529438423170154496},
    "Jan-Mar 2019 Legend": { "id": 529438421354020870}
  },
  "Monthly Colours (Apr-Jun 2019)": {
    "hidden": true,
    "default_price": null,
    "default_required_lvl": null,
    "default_type": "colour",
    "Apr-Jun 2019 Spectator": { "id": 562291816012054569},
    "Apr-Jun 2019 Challenger": { "id": 562291919267430410},
    "Apr-Jun 2019 Champion": { "id": 562292030374412328},
    "Apr-Jun 2019 Legend": { "id": 562292115875430471}
  },
  "Exp Boosts":
  {
    "hidden": true,
    "default_price": null,
    "default_required_lvl": null,
    "default_type": "exp_boost",
    "+5% Monthly Exp Boost": {"description": "a +5% monthly exp boost that gives double if gifted to someone (max +100%)"},
    "+50% Daily Exp Boost": {"description": "a +50% daily exp boost for 50 messages that gives double (100% and 100 messages) if gifted to someone (max boost is +100%)"}

  },
  "C-Bucks Coupons":
  {
    "hidden": true,
    "default_price": null,
    "default_required_lvl": null,
    "default_type": "coupon",
    "description": "a coupon that can be used on yourself or gifted that gives a set amount of C-Bucks",
    "50 Credits Coupon": {},
    "100 Credits Coupon": {},
    "150 Credits Coupon": {},
    "200 Credits Coupon": {},
    "250 Credits Coupon": {},
    "300 Credits Coupon": {},
    "400 Credits Coupon": {},
    "500 Credits Coupon": {},
    "750 Credits Coupon": {},
    "1000 Credits Coupon": {},
    "1500 Credits Coupon": {},
    "2000 Credits Coupon": {},
    "2500 Credits Coupon": {},
    "5000 Credits Coupon": {}
  }
}